<?xml version="1.0" encoding="utf-8"?>
<!-- Generator: Adobe Illustrator 15.1.0, SVG Export Plug-In . SVG Version: 6.00 Build 0)  -->
<!DOCTYPE svg PUBLIC "-//W3C//DTD SVG 1.1//EN" "http://www.w3.org/Graphics/SVG/1.1/DTD/svg11.dtd">
<svg version="1.1" id="Layer_48" xmlns="http://www.w3.org/2000/svg" xmlns:xlink="http://www.w3.org/1999/xlink" x="0px" y="0px"
	 width="24.612px" height="20px" viewBox="0 0 24.612 20" enable-background="new 0 0 24.612 20" xml:space="preserve">
<path fill="#0071BB" d="M7.742,20C4.889,20,2.234,19.163,0,17.731c0.396,0.045,0.797,0.072,1.205,0.072
	c2.363,0,4.541-0.809,6.271-2.162C5.268,15.6,3.402,14.14,2.759,12.136c0.31,0.057,0.624,0.089,0.95,0.089
	c0.46,0,0.908-0.061,1.33-0.176C2.731,11.584,0.99,9.543,0.99,7.097c0-0.021,0-0.041,0-0.063c0.68,0.378,1.458,0.604,2.289,0.63
	c-1.357-0.904-2.25-2.449-2.25-4.203c0-0.925,0.25-1.791,0.684-2.538c2.491,3.055,6.211,5.065,10.408,5.275
	c-0.086-0.369-0.129-0.756-0.129-1.151C11.992,2.26,14.252,0,17.039,0c1.454,0,2.768,0.613,3.688,1.595
	c1.149-0.228,2.229-0.647,3.207-1.225c-0.38,1.177-1.179,2.168-2.222,2.792c1.021-0.119,1.994-0.391,2.899-0.795
	c-0.678,1.013-1.534,1.904-2.521,2.614c0.008,0.217,0.018,0.434,0.018,0.652C22.109,12.305,17.029,20,7.742,20"/>
</svg>
